verilog/doulos/ex07/ex07proj/isim.log
ISim log file
Running: C:\training\verilog\ex07\ex07proj\updownCounterTF_isim_beh.exe -intstyle ise -gui -tclbatch isim.cmd -wdb C:/training/verilog/ex07/ex07proj/updownCounterTF_isim_beh.wdb 
ISim O.40d (signature 0x79f3f3a8)
This is a Full version of ISim.
Time resolution is 1 ps
# onerror resume
# wave add /
# run 1000 ns
Simulator is doing circuit initialization process.
                                                Data        Q      
   time   OK  Clock Reset Enable Load Up1Dn0  76543210   76543210  
|~~~~~~~~|~~~|~~~~~|~~~~~|~~~~~~|~~~~|~~~~~~|~~~~~~~~~~|~~~~~~~~~~|
Finished circuit initialization process.
    0 ns   1    x     1     0     0     1     xxxxxxxx   00000000
    5 ns   1    1     1     0     0     1     xxxxxxxx   00000000
   10 ns   1    0     0     0     0     1     xxxxxxxx   00000000
   15 ns   1    1     0     0     0     1     xxxxxxxx   00000000
   20 ns   1    0     0     1     0     1     xxxxxxxx   00000000
   25 ns   1    1     0     1     0     1     xxxxxxxx   00000001
   30 ns   1    0     0     1     0     1     xxxxxxxx   00000001
   35 ns   1    1     0     1     0     1     xxxxxxxx   00000010
   40 ns   1    0     0     1     0     0     xxxxxxxx   00000010
   45 ns   1    1     0     1     0     0     xxxxxxxx   00000001
   50 ns   1    0     0     1     0     0     xxxxxxxx   00000001
   55 ns   1    1     0     1     0     0     xxxxxxxx   00000000
   60 ns   1    0     0     1     0     0     xxxxxxxx   00000000
   65 ns   1    1     0     1     0     0     xxxxxxxx   11111111
   70 ns   1    0     0     1     0     0     xxxxxxxx   11111111
   75 ns   1    1     0     1     0     0     xxxxxxxx   11111110
   80 ns   1    0     0     1     0     1     xxxxxxxx   11111110
   85 ns   1    1     0     1     0     1     xxxxxxxx   11111111
   90 ns   1    0     0     1     0     1     xxxxxxxx   11111111
   95 ns   1    1     0     1     0     1     xxxxxxxx   00000000
  100 ns   1    0     0     1     0     1     xxxxxxxx   00000000
  105 ns   1    1     0     1     0     1     xxxxxxxx   00000001
  110 ns   1    0     0     1     0     1     xxxxxxxx   00000001
  115 ns   1    1     0     1     0     1     xxxxxxxx   00000010
  120 ns   1    0     1     1     0     1     xxxxxxxx   00000000
  125 ns   1    1     1     1     0     1     xxxxxxxx   00000000
  130 ns   1    0     0     1     0     1     xxxxxxxx   00000000
  135 ns   1    1     0     1     0     1     xxxxxxxx   00000001
  140 ns   1    0     0     1     0     1     xxxxxxxx   00000001
  145 ns   1    1     0     1     0     1     xxxxxxxx   00000010
  150 ns   1    0     0     1     0     1     xxxxxxxx   00000010
  155 ns   1    1     0     1     0     1     xxxxxxxx   00000011
  160 ns   1    0     0     0     0     1     xxxxxxxx   00000011
  165 ns   1    1     0     0     0     1     xxxxxxxx   00000011
  170 ns   1    0     0     0     1     1     01111111   00000011
  175 ns   1    1     0     0     1     1     01111111   00000011
  180 ns   1    0     0     1     0     1     01111111   00000011
  185 ns   1    1     0     1     0     1     01111111   00000100
  190 ns   1    0     0     1     1     1     01111111   00000100
  195 ns   1    1     0     1     1     1     01111111   01111111
  200 ns   1    0     0     1     0     1     01111111   01111111
  205 ns   1    1     0     1     0     1     01111111   10000000
  210 ns   1    0     0     1     0     1     01111111   10000000
  215 ns   1    1     0     1     0     1     01111111   10000001
  220 ns   1    0     0     0     0     1     01111111   10000001
  225 ns   1    1     0     0     0     1     01111111   10000001
  230 ns   1    0     0     0     0     0     01111111   10000001
  235 ns   1    1     0     0     0     0     01111111   10000001
  240 ns   1    0     0     1     0     0     01111111   10000001
  245 ns   1    1     0     1     0     0     01111111   10000000
  250 ns   1    0     0     1     0     0     01111111   10000000
  255 ns   1    1     0     1     0     0     01111111   01111111
  260 ns   1    0     0     1     1     0     11110000   01111111
  265 ns   1    1     0     1     1     0     11110000   11110000
  270 ns   1    0     1     1     1     0     11110000   00000000
  275 ns   1    1     1     1     1     0     11110000   00000000
  280 ns   1    0     1     1     0     1     11110000   00000000
  285 ns   1    1     1     1     0     1     11110000   00000000
  290 ns   1    0     0     1     0     1     11110000   00000000
  295 ns   1    1     0     1     0     1     11110000   00000001
  300 ns   1    0     0     1     0     1     11110000   00000001
  305 ns   1    1     0     1     0     1     11110000   00000010
  310 ns   1    0     0     1     0     1     11110000   00000010
  315 ns   1    1     0     1     0     1     11110000   00000011
  320 ns   1    0     0     1     0     1     11110000   00000011
  325 ns   1    1     0     1     0     1     11110000   00000100
  330 ns   1    0     0     1     0     1     11110000   00000100
  335 ns   1    1     0     1     0     1     11110000   00000101
  340 ns   1    0     0     1     0     1     11110000   00000101
  345 ns   1    1     0     1     0     1     11110000   00000110
  350 ns   1    0     0     1     0     1     11110000   00000110
  355 ns   1    1     0     1     0     1     11110000   00000111
  360 ns   1    0     0     1     0     1     11110000   00000111
  365 ns   1    1     0     1     0     1     11110000   00001000
  370 ns   1    0     0     1     0     1     11110000   00001000
  375 ns   1    1     0     1     0     1     11110000   00001001
  380 ns   1    0     0     1     0     1     11110000   00001001
  385 ns   1    1     0     1     0     1     11110000   00001010
  390 ns   1    0     0     1     0     1     11110000   00001010
  395 ns   1    1     0     1     0     1     11110000   00001011
  400 ns   1    0     0     1     0     1     11110000   00001011
  405 ns   1    1     0     1     0     1     11110000   00001100
  410 ns   1    0     0     1     0     1     11110000   00001100
  415 ns   1    1     0     1     0     1     11110000   00001101
  420 ns   1    0     0     1     0     1     11110000   00001101
  425 ns   1    1     0     1     0     1     11110000   00001110
  430 ns   1    0     0     1     0     1     11110000   00001110
  435 ns   1    1     0     1     0     1     11110000   00001111
  440 ns   1    0     0     1     0     1     11110000   00001111
  445 ns   1    1     0     1     0     1     11110000   00010000
  450 ns   1    0     0     1     0     1     11110000   00010000
  455 ns   1    1     0     1     0     1     11110000   00010001
  460 ns   1    0     0     1     0     1     11110000   00010001
  465 ns   1    1     0     1     0     1     11110000   00010010
  470 ns   1    0     0     1     0     1     11110000   00010010
  475 ns   1    1     0     1     0     1     11110000   00010011
  480 ns   1    0     0     1     0     1     11110000   00010011
  485 ns   1    1     0     1     0     1     11110000   00010100
  490 ns   1    0     0     1     0     1     11110000   00010100
  495 ns   1    1     0     1     0     1     11110000   00010101
  500 ns   1    0     0     1     0     1     11110000   00010101
  505 ns   1    1     0     1     0     1     11110000   00010110
  510 ns   1    0     0     1     0     1     11110000   00010110
  515 ns   1    1     0     1     0     1     11110000   00010111
  520 ns   1    0     0     1     0     1     11110000   00010111
  525 ns   1    1     0     1     0     1     11110000   00011000
  530 ns   1    0     0     1     0     1     11110000   00011000
  535 ns   1    1     0     1     0     1     11110000   00011001
  540 ns   1    0     0     1     0     1     11110000   00011001
  545 ns   1    1     0     1     0     1     11110000   00011010
  550 ns   1    0     0     1     0     1     11110000   00011010
  555 ns   1    1     0     1     0     1     11110000   00011011
  560 ns   1    0     0     1     0     1     11110000   00011011
  565 ns   1    1     0     1     0     1     11110000   00011100
  570 ns   1    0     0     1     0     1     11110000   00011100
  575 ns   1    1     0     1     0     1     11110000   00011101
  580 ns   1    0     0     1     0     1     11110000   00011101
  585 ns   1    1     0     1     0     1     11110000   00011110
  590 ns   1    0     0     1     0     1     11110000   00011110
  595 ns   1    1     0     1     0     1     11110000   00011111
  600 ns   1    0     0     1     0     1     11110000   00011111
  605 ns   1    1     0     1     0     1     11110000   00100000
  610 ns   1    0     0     1     0     1     11110000   00100000
  615 ns   1    1     0     1     0     1     11110000   00100001
  620 ns   1    0     0     1     0     1     11110000   00100001
  625 ns   1    1     0     1     0     1     11110000   00100010
  630 ns   1    0     0     1     0     1     11110000   00100010
  635 ns   1    1     0     1     0     1     11110000   00100011
  640 ns   1    0     0     1     0     1     11110000   00100011
  645 ns   1    1     0     1     0     1     11110000   00100100
  650 ns   1    0     0     1     0     1     11110000   00100100
  655 ns   1    1     0     1     0     1     11110000   00100101
  660 ns   1    0     0     1     0     1     11110000   00100101
  665 ns   1    1     0     1     0     1     11110000   00100110
  670 ns   1    0     0     1     0     1     11110000   00100110
  675 ns   1    1     0     1     0     1     11110000   00100111
  680 ns   1    0     0     1     0     1     11110000   00100111
  685 ns   1    1     0     1     0     1     11110000   00101000
  690 ns   1    0     0     1     0     1     11110000   00101000
  695 ns   1    1     0     1     0     1     11110000   00101001
  700 ns   1    0     0     1     0     1     11110000   00101001
  705 ns   1    1     0     1     0     1     11110000   00101010
  710 ns   1    0     0     1     0     1     11110000   00101010
  715 ns   1    1     0     1     0     1     11110000   00101011
  720 ns   1    0     0     1     0     1     11110000   00101011
  725 ns   1    1     0     1     0     1     11110000   00101100
  730 ns   1    0     0     1     0     1     11110000   00101100
  735 ns   1    1     0     1     0     1     11110000   00101101
  740 ns   1    0     0     1     0     1     11110000   00101101
  745 ns   1    1     0     1     0     1     11110000   00101110
  750 ns   1    0     0     1     0     1     11110000   00101110
  755 ns   1    1     0     1     0     1     11110000   00101111
  760 ns   1    0     0     1     0     1     11110000   00101111
  765 ns   1    1     0     1     0     1     11110000   00110000
  770 ns   1    0     0     1     0     1     11110000   00110000
  775 ns   1    1     0     1     0     1     11110000   00110001
  780 ns   1    0     0     1     0     1     11110000   00110001
  785 ns   1    1     0     1     0     1     11110000   00110010
  790 ns   1    0     0     1     0     1     11110000   00110010
  795 ns   1    1     0     1     0     1     11110000   00110011
  800 ns   1    0     0     1     0     1     11110000   00110011
  805 ns   1    1     0     1     0     1     11110000   00110100
  810 ns   1    0     0     1     0     1     11110000   00110100
  815 ns   1    1     0     1     0     1     11110000   00110101
  820 ns   1    0     0     1     0     1     11110000   00110101
  825 ns   1    1     0     1     0     1     11110000   00110110
  830 ns   1    0     0     1     0     1     11110000   00110110
  835 ns   1    1     0     1     0     1     11110000   00110111
  840 ns   1    0     0     1     0     1     11110000   00110111
  845 ns   1    1     0     1     0     1     11110000   00111000
  850 ns   1    0     0     1     0     1     11110000   00111000
  855 ns   1    1     0     1     0     1     11110000   00111001
  860 ns   1    0     0     1     0     1     11110000   00111001
  865 ns   1    1     0     1     0     1     11110000   00111010
  870 ns   1    0     0     1     0     1     11110000   00111010
  875 ns   1    1     0     1     0     1     11110000   00111011
  880 ns   1    0     0     1     0     1     11110000   00111011
  885 ns   1    1     0     1     0     1     11110000   00111100
  890 ns   1    0     0     1     0     1     11110000   00111100
  895 ns   1    1     0     1     0     1     11110000   00111101
  900 ns   1    0     0     1     0     1     11110000   00111101
  905 ns   1    1     0     1     0     1     11110000   00111110
  910 ns   1    0     0     1     0     1     11110000   00111110
  915 ns   1    1     0     1     0     1     11110000   00111111
  920 ns   1    0     0     1     0     1     11110000   00111111
  925 ns   1    1     0     1     0     1     11110000   01000000
  930 ns   1    0     0     1     0     1     11110000   01000000
  935 ns   1    1     0     1     0     1     11110000   01000001
  940 ns   1    0     0     1     0     1     11110000   01000001
  945 ns   1    1     0     1     0     1     11110000   01000010
  950 ns   1    0     0     1     0     1     11110000   01000010
  955 ns   1    1     0     1     0     1     11110000   01000011
  960 ns   1    0     0     1     0     1     11110000   01000011
  965 ns   1    1     0     1     0     1     11110000   01000100
  970 ns   1    0     0     1     0     1     11110000   01000100
  975 ns   1    1     0     1     0     1     11110000   01000101
  980 ns   1    0     0     1     0     1     11110000   01000101
  985 ns   1    1     0     1     0     1     11110000   01000110
  990 ns   1    0     0     1     0     1     11110000   01000110
  995 ns   1    1     0     1     0     1     11110000   01000111
 1000 ns   1    0     0     1     0     1     11110000   01000111
