verilog/doulos/ex06/ec06proj/isim.log
ISim log file
Running: C:\training\verilog\ex06\ec06proj\MinMaxtf_isim_beh.exe -intstyle ise -gui -tclbatch isim.cmd -wdb C:/training/verilog/ex06/ec06proj/MinMaxtf_isim_beh.wdb 
ISim O.40d (signature 0x79f3f3a8)
This is a Full version of ISim.
Time resolution is 1 ps
# onerror resume
# wave add /
# run 1000 us
Simulator is doing circuit initialization process.
Finished circuit initialization process.
Time MinMax X Y Output
  0.0ns 0 x  x  x
 10.0ns 0 0  x  0
 20.0ns 0 0  0  0
 30.0ns 0 0  1  0
 40.0ns 0 0  2  0
 50.0ns 0 0  3  0
 60.0ns 0 0  4  0
 70.0ns 0 0  5  0
 80.0ns 0 0  6  0
 90.0ns 0 0  7  0
100.0ns 0 0  8  0
110.0ns 0 0  9  0
120.0ns 0 0 10  0
130.0ns 0 0 11  0
140.0ns 0 0 12  0
150.0ns 0 0 13  0
160.0ns 0 0 14  0
170.0ns 0 0 15  0
180.0ns 0 1 15  1
190.0ns 0 1  0  0
200.0ns 0 1  1  1
210.0ns 0 1  2  1
220.0ns 0 1  3  1
230.0ns 0 1  4  1
240.0ns 0 1  5  1
250.0ns 0 1  6  1
260.0ns 0 1  7  1
270.0ns 0 1  8  1
280.0ns 0 1  9  1
290.0ns 0 1 10  1
300.0ns 0 1 11  1
310.0ns 0 1 12  1
320.0ns 0 1 13  1
330.0ns 0 1 14  1
340.0ns 0 1 15  1
350.0ns 0 2 15  2
360.0ns 0 2  0  0
370.0ns 0 2  1  1
380.0ns 0 2  2  2
390.0ns 0 2  3  2
400.0ns 0 2  4  2
410.0ns 0 2  5  2
420.0ns 0 2  6  2
430.0ns 0 2  7  2
440.0ns 0 2  8  2
450.0ns 0 2  9  2
460.0ns 0 2 10  2
470.0ns 0 2 11  2
480.0ns 0 2 12  2
490.0ns 0 2 13  2
500.0ns 0 2 14  2
510.0ns 0 2 15  2
520.0ns 0 3 15  3
530.0ns 0 3  0  0
540.0ns 0 3  1  1
550.0ns 0 3  2  2
560.0ns 0 3  3  3
570.0ns 0 3  4  3
580.0ns 0 3  5  3
590.0ns 0 3  6  3
600.0ns 0 3  7  3
610.0ns 0 3  8  3
620.0ns 0 3  9  3
630.0ns 0 3 10  3
640.0ns 0 3 11  3
650.0ns 0 3 12  3
660.0ns 0 3 13  3
670.0ns 0 3 14  3
680.0ns 0 3 15  3
690.0ns 0 4 15  4
700.0ns 0 4  0  0
710.0ns 0 4  1  1
720.0ns 0 4  2  2
730.0ns 0 4  3  3
740.0ns 0 4  4  4
750.0ns 0 4  5  4
760.0ns 0 4  6  4
770.0ns 0 4  7  4
780.0ns 0 4  8  4
790.0ns 0 4  9  4
800.0ns 0 4 10  4
810.0ns 0 4 11  4
820.0ns 0 4 12  4
830.0ns 0 4 13  4
840.0ns 0 4 14  4
850.0ns 0 4 15  4
860.0ns 0 5 15  5
870.0ns 0 5  0  0
880.0ns 0 5  1  1
890.0ns 0 5  2  2
900.0ns 0 5  3  3
910.0ns 0 5  4  4
920.0ns 0 5  5  5
930.0ns 0 5  6  5
940.0ns 0 5  7  5
950.0ns 0 5  8  5
960.0ns 0 5  9  5
970.0ns 0 5 10  5
980.0ns 0 5 11  5
990.0ns 0 5 12  5
1000.0ns 0 5 13  5
1010.0ns 0 5 14  5
1020.0ns 0 5 15  5
1030.0ns 0 6 15  6
1040.0ns 0 6  0  0
1050.0ns 0 6  1  1
1060.0ns 0 6  2  2
1070.0ns 0 6  3  3
1080.0ns 0 6  4  4
1090.0ns 0 6  5  5
1100.0ns 0 6  6  6
1110.0ns 0 6  7  6
1120.0ns 0 6  8  6
1130.0ns 0 6  9  6
1140.0ns 0 6 10  6
1150.0ns 0 6 11  6
1160.0ns 0 6 12  6
1170.0ns 0 6 13  6
1180.0ns 0 6 14  6
1190.0ns 0 6 15  6
1200.0ns 0 7 15  7
1210.0ns 0 7  0  0
1220.0ns 0 7  1  1
1230.0ns 0 7  2  2
1240.0ns 0 7  3  3
1250.0ns 0 7  4  4
1260.0ns 0 7  5  5
1270.0ns 0 7  6  6
1280.0ns 0 7  7  7
1290.0ns 0 7  8  7
1300.0ns 0 7  9  7
1310.0ns 0 7 10  7
1320.0ns 0 7 11  7
1330.0ns 0 7 12  7
1340.0ns 0 7 13  7
1350.0ns 0 7 14  7
1360.0ns 0 7 15  7
1370.0ns 0 8 15  8
1380.0ns 0 8  0  0
1390.0ns 0 8  1  1
1400.0ns 0 8  2  2
1410.0ns 0 8  3  3
1420.0ns 0 8  4  4
1430.0ns 0 8  5  5
1440.0ns 0 8  6  6
1450.0ns 0 8  7  7
1460.0ns 0 8  8  8
1470.0ns 0 8  9  8
1480.0ns 0 8 10  8
1490.0ns 0 8 11  8
1500.0ns 0 8 12  8
1510.0ns 0 8 13  8
1520.0ns 0 8 14  8
1530.0ns 0 8 15  8
1540.0ns 0 9 15  9
1550.0ns 0 9  0  0
1560.0ns 0 9  1  1
1570.0ns 0 9  2  2
1580.0ns 0 9  3  3
1590.0ns 0 9  4  4
1600.0ns 0 9  5  5
1610.0ns 0 9  6  6
1620.0ns 0 9  7  7
1630.0ns 0 9  8  8
1640.0ns 0 9  9  9
1650.0ns 0 9 10  9
1660.0ns 0 9 11  9
1670.0ns 0 9 12  9
1680.0ns 0 9 13  9
1690.0ns 0 9 14  9
1700.0ns 0 9 15  9
1710.0ns 010 15 10
1720.0ns 010  0  0
1730.0ns 010  1  1
1740.0ns 010  2  2
1750.0ns 010  3  3
1760.0ns 010  4  4
1770.0ns 010  5  5
1780.0ns 010  6  6
1790.0ns 010  7  7
1800.0ns 010  8  8
1810.0ns 010  9  9
1820.0ns 010 10 10
1830.0ns 010 11 10
1840.0ns 010 12 10
1850.0ns 010 13 10
1860.0ns 010 14 10
1870.0ns 010 15 10
1880.0ns 011 15 11
1890.0ns 011  0  0
1900.0ns 011  1  1
1910.0ns 011  2  2
1920.0ns 011  3  3
1930.0ns 011  4  4
1940.0ns 011  5  5
1950.0ns 011  6  6
1960.0ns 011  7  7
1970.0ns 011  8  8
1980.0ns 011  9  9
1990.0ns 011 10 10
2000.0ns 011 11 11
2010.0ns 011 12 11
2020.0ns 011 13 11
2030.0ns 011 14 11
2040.0ns 011 15 11
2050.0ns 012 15 12
2060.0ns 012  0  0
2070.0ns 012  1  1
2080.0ns 012  2  2
2090.0ns 012  3  3
2100.0ns 012  4  4
2110.0ns 012  5  5
2120.0ns 012  6  6
2130.0ns 012  7  7
2140.0ns 012  8  8
2150.0ns 012  9  9
2160.0ns 012 10 10
2170.0ns 012 11 11
2180.0ns 012 12 12
2190.0ns 012 13 12
2200.0ns 012 14 12
2210.0ns 012 15 12
2220.0ns 013 15 13
2230.0ns 013  0  0
2240.0ns 013  1  1
2250.0ns 013  2  2
2260.0ns 013  3  3
2270.0ns 013  4  4
2280.0ns 013  5  5
2290.0ns 013  6  6
2300.0ns 013  7  7
2310.0ns 013  8  8
2320.0ns 013  9  9
2330.0ns 013 10 10
2340.0ns 013 11 11
2350.0ns 013 12 12
2360.0ns 013 13 13
2370.0ns 013 14 13
2380.0ns 013 15 13
2390.0ns 014 15 14
2400.0ns 014  0  0
2410.0ns 014  1  1
2420.0ns 014  2  2
2430.0ns 014  3  3
2440.0ns 014  4  4
2450.0ns 014  5  5
2460.0ns 014  6  6
2470.0ns 014  7  7
2480.0ns 014  8  8
2490.0ns 014  9  9
2500.0ns 014 10 10
2510.0ns 014 11 11
2520.0ns 014 12 12
2530.0ns 014 13 13
2540.0ns 014 14 14
2550.0ns 014 15 14
2560.0ns 015 15 15
2570.0ns 015  0  0
2580.0ns 015  1  1
2590.0ns 015  2  2
2600.0ns 015  3  3
2610.0ns 015  4  4
2620.0ns 015  5  5
2630.0ns 015  6  6
2640.0ns 015  7  7
2650.0ns 015  8  8
2660.0ns 015  9  9
2670.0ns 015 10 10
2680.0ns 015 11 11
2690.0ns 015 12 12
2700.0ns 015 13 13
2710.0ns 015 14 14
Got here
2720.0ns 115 15 15
2730.0ns 1 0 15 15
2740.0ns 1 0  0  0
2750.0ns 1 0  1  1
2760.0ns 1 0  2  2
2770.0ns 1 0  3  3
2780.0ns 1 0  4  4
2790.0ns 1 0  5  5
2800.0ns 1 0  6  6
2810.0ns 1 0  7  7
2820.0ns 1 0  8  8
2830.0ns 1 0  9  9
2840.0ns 1 0 10 10
2850.0ns 1 0 11 11
2860.0ns 1 0 12 12
2870.0ns 1 0 13 13
2880.0ns 1 0 14 14
2890.0ns 1 0 15 15
2900.0ns 1 1 15 15
2910.0ns 1 1  0  1
2920.0ns 1 1  1  1
2930.0ns 1 1  2  2
2940.0ns 1 1  3  3
2950.0ns 1 1  4  4
2960.0ns 1 1  5  5
2970.0ns 1 1  6  6
2980.0ns 1 1  7  7
2990.0ns 1 1  8  8
3000.0ns 1 1  9  9
3010.0ns 1 1 10 10
3020.0ns 1 1 11 11
3030.0ns 1 1 12 12
3040.0ns 1 1 13 13
3050.0ns 1 1 14 14
3060.0ns 1 1 15 15
3070.0ns 1 2 15 15
3080.0ns 1 2  0  2
3090.0ns 1 2  1  2
3100.0ns 1 2  2  2
3110.0ns 1 2  3  3
3120.0ns 1 2  4  4
3130.0ns 1 2  5  5
3140.0ns 1 2  6  6
3150.0ns 1 2  7  7
3160.0ns 1 2  8  8
3170.0ns 1 2  9  9
3180.0ns 1 2 10 10
3190.0ns 1 2 11 11
3200.0ns 1 2 12 12
3210.0ns 1 2 13 13
3220.0ns 1 2 14 14
3230.0ns 1 2 15 15
3240.0ns 1 3 15 15
3250.0ns 1 3  0  3
3260.0ns 1 3  1  3
3270.0ns 1 3  2  3
3280.0ns 1 3  3  3
3290.0ns 1 3  4  4
3300.0ns 1 3  5  5
3310.0ns 1 3  6  6
3320.0ns 1 3  7  7
3330.0ns 1 3  8  8
3340.0ns 1 3  9  9
3350.0ns 1 3 10 10
3360.0ns 1 3 11 11
3370.0ns 1 3 12 12
3380.0ns 1 3 13 13
3390.0ns 1 3 14 14
3400.0ns 1 3 15 15
3410.0ns 1 4 15 15
3420.0ns 1 4  0  4
3430.0ns 1 4  1  4
3440.0ns 1 4  2  4
3450.0ns 1 4  3  4
3460.0ns 1 4  4  4
3470.0ns 1 4  5  5
3480.0ns 1 4  6  6
3490.0ns 1 4  7  7
3500.0ns 1 4  8  8
3510.0ns 1 4  9  9
3520.0ns 1 4 10 10
3530.0ns 1 4 11 11
3540.0ns 1 4 12 12
3550.0ns 1 4 13 13
3560.0ns 1 4 14 14
3570.0ns 1 4 15 15
3580.0ns 1 5 15 15
3590.0ns 1 5  0  5
3600.0ns 1 5  1  5
3610.0ns 1 5  2  5
3620.0ns 1 5  3  5
3630.0ns 1 5  4  5
3640.0ns 1 5  5  5
3650.0ns 1 5  6  6
3660.0ns 1 5  7  7
3670.0ns 1 5  8  8
3680.0ns 1 5  9  9
3690.0ns 1 5 10 10
3700.0ns 1 5 11 11
3710.0ns 1 5 12 12
3720.0ns 1 5 13 13
3730.0ns 1 5 14 14
3740.0ns 1 5 15 15
3750.0ns 1 6 15 15
3760.0ns 1 6  0  6
3770.0ns 1 6  1  6
3780.0ns 1 6  2  6
3790.0ns 1 6  3  6
3800.0ns 1 6  4  6
3810.0ns 1 6  5  6
3820.0ns 1 6  6  6
3830.0ns 1 6  7  7
3840.0ns 1 6  8  8
3850.0ns 1 6  9  9
3860.0ns 1 6 10 10
3870.0ns 1 6 11 11
3880.0ns 1 6 12 12
3890.0ns 1 6 13 13
3900.0ns 1 6 14 14
3910.0ns 1 6 15 15
3920.0ns 1 7 15 15
3930.0ns 1 7  0  7
3940.0ns 1 7  1  7
3950.0ns 1 7  2  7
3960.0ns 1 7  3  7
3970.0ns 1 7  4  7
3980.0ns 1 7  5  7
3990.0ns 1 7  6  7
4000.0ns 1 7  7  7
4010.0ns 1 7  8  8
4020.0ns 1 7  9  9
4030.0ns 1 7 10 10
4040.0ns 1 7 11 11
4050.0ns 1 7 12 12
4060.0ns 1 7 13 13
4070.0ns 1 7 14 14
4080.0ns 1 7 15 15
4090.0ns 1 8 15 15
4100.0ns 1 8  0  8
4110.0ns 1 8  1  8
4120.0ns 1 8  2  8
4130.0ns 1 8  3  8
4140.0ns 1 8  4  8
4150.0ns 1 8  5  8
4160.0ns 1 8  6  8
4170.0ns 1 8  7  8
4180.0ns 1 8  8  8
4190.0ns 1 8  9  9
4200.0ns 1 8 10 10
4210.0ns 1 8 11 11
4220.0ns 1 8 12 12
4230.0ns 1 8 13 13
4240.0ns 1 8 14 14
4250.0ns 1 8 15 15
4260.0ns 1 9 15 15
4270.0ns 1 9  0  9
4280.0ns 1 9  1  9
4290.0ns 1 9  2  9
4300.0ns 1 9  3  9
4310.0ns 1 9  4  9
4320.0ns 1 9  5  9
4330.0ns 1 9  6  9
4340.0ns 1 9  7  9
4350.0ns 1 9  8  9
4360.0ns 1 9  9  9
4370.0ns 1 9 10 10
4380.0ns 1 9 11 11
4390.0ns 1 9 12 12
4400.0ns 1 9 13 13
4410.0ns 1 9 14 14
4420.0ns 1 9 15 15
4430.0ns 110 15 15
4440.0ns 110  0 10
4450.0ns 110  1 10
4460.0ns 110  2 10
4470.0ns 110  3 10
4480.0ns 110  4 10
4490.0ns 110  5 10
4500.0ns 110  6 10
4510.0ns 110  7 10
4520.0ns 110  8 10
4530.0ns 110  9 10
4540.0ns 110 10 10
4550.0ns 110 11 11
4560.0ns 110 12 12
4570.0ns 110 13 13
4580.0ns 110 14 14
4590.0ns 110 15 15
4600.0ns 111 15 15
4610.0ns 111  0 11
4620.0ns 111  1 11
4630.0ns 111  2 11
4640.0ns 111  3 11
4650.0ns 111  4 11
4660.0ns 111  5 11
4670.0ns 111  6 11
4680.0ns 111  7 11
4690.0ns 111  8 11
4700.0ns 111  9 11
4710.0ns 111 10 11
4720.0ns 111 11 11
4730.0ns 111 12 12
4740.0ns 111 13 13
4750.0ns 111 14 14
4760.0ns 111 15 15
4770.0ns 112 15 15
4780.0ns 112  0 12
4790.0ns 112  1 12
4800.0ns 112  2 12
4810.0ns 112  3 12
4820.0ns 112  4 12
4830.0ns 112  5 12
4840.0ns 112  6 12
4850.0ns 112  7 12
4860.0ns 112  8 12
4870.0ns 112  9 12
4880.0ns 112 10 12
4890.0ns 112 11 12
4900.0ns 112 12 12
4910.0ns 112 13 13
4920.0ns 112 14 14
4930.0ns 112 15 15
4940.0ns 113 15 15
4950.0ns 113  0 13
4960.0ns 113  1 13
4970.0ns 113  2 13
4980.0ns 113  3 13
4990.0ns 113  4 13
5000.0ns 113  5 13
5010.0ns 113  6 13
5020.0ns 113  7 13
5030.0ns 113  8 13
5040.0ns 113  9 13
5050.0ns 113 10 13
5060.0ns 113 11 13
5070.0ns 113 12 13
5080.0ns 113 13 13
5090.0ns 113 14 14
5100.0ns 113 15 15
5110.0ns 114 15 15
5120.0ns 114  0 14
5130.0ns 114  1 14
5140.0ns 114  2 14
5150.0ns 114  3 14
5160.0ns 114  4 14
5170.0ns 114  5 14
5180.0ns 114  6 14
5190.0ns 114  7 14
5200.0ns 114  8 14
5210.0ns 114  9 14
5220.0ns 114 10 14
5230.0ns 114 11 14
5240.0ns 114 12 14
5250.0ns 114 13 14
5260.0ns 114 14 14
5270.0ns 114 15 15
5280.0ns 115 15 15
5290.0ns 115  0 15
5300.0ns 115  1 15
5310.0ns 115  2 15
5320.0ns 115  3 15
5330.0ns 115  4 15
5340.0ns 115  5 15
5350.0ns 115  6 15
5360.0ns 115  7 15
5370.0ns 115  8 15
5380.0ns 115  9 15
5390.0ns 115 10 15
5400.0ns 115 11 15
5410.0ns 115 12 15
5420.0ns 115 13 15
5430.0ns 115 14 15
5440.0ns 115 15 15
